{
    "gulp": {
        "configuration": [
            "Configuration/**/*.json"
        ],
        "javascript": [
            "JavaScript/*"
        ],
        "templates": [
            "Templates/*"
        ],
        "sass": [
            "Sass/**/*.scss"
        ]
    },
    "overrides": {
        "suitecommerce/SiteSearch@2.2.2/Sass/_site-search.scss": "Sass/_qs-site-search.scss"
    }
}
