{
    "type": "object",
    "properties": {
        "quickStart.backinstocknotification.enabled": {
            "group": "commerceSuiteSolution",
            "subtab": "quickStart",
            "type": "boolean",
            "title": "Enable Back In Stock Notification",
            "default": true
        }
    }
}