{
  "id": "ss-contactus",
  "name": "SuiteSolution - ContactUs",
  "folders": {
    "modules": "Modules",
    "distribution": "bin/LocalDistribution",
    "deploy": "bin/DeployDistribution",
    "release": "bin/ReleaseDistribution"
  },
  "dependencies": [
    "kilimanjaro-base",
    "ss-efcore",
    "ss-generalconfig"
  ],
  "modules": {
    "efficiencies/ContactUs": "2.0.0"
  },
  "tasksConfig": {
    "javascript": [
      {
        "entryPoint": "SC.Shopping.Starter",
        "dependencies": [
          "ContactUs"
        ]
      },
      {
        "entryPoint": "SC.Checkout.Starter",
        "dependencies": [
          "ContactUs"
        ]
      }
    ],
    "ssp-libraries": {
      "dependencies": [
        "ContactUs.Model",
        "ContactUs.ServiceController"
      ]
    },
    "sass": {
      "applications": [
        {
          "name": "Shopping",
          "dependencies": [
            "ContactUs"
          ]
        },
        {
          "name": "Checkout",
          "dependencies": [
            "ContactUs"
          ]
        }
      ]
    }
  }
}
