{
    "id": "ss-theme-summit",
    "name": "SuiteSolution Theme Summit B2B - Kilimanjaro",
    "dependencies": ["kilimanjaro-base"],
    "modules": {
        "themes/ThemesConfiguration": "1.0.1",
        "themes/CustomIcons": "1.0.0",
        "themes/summit@2.1.0/CustomStyles": "theme",
        "themes/summit@2.1.0/CustomJS": "theme",
        "themes/summit@2.1.0/overrides/Theme_BaseSassStyles": "theme",
        "themes/summit@2.1.0/overrides/Theme_ModuleStyles": "theme",
        "themes/summit@2.1.0/overrides/Theme_Cart": "theme",
        "themes/summit@2.1.0/overrides/Theme_ErrorManagement": "theme",
        "themes/summit@2.1.0/overrides/Theme_Footer": "theme",
        "themes/summit@2.1.0/overrides/Theme_Header": "theme",
        "themes/summit@2.1.0/overrides/Theme_Home": "theme",
        "themes/summit@2.1.0/overrides/Theme_MyAccountApplication": "theme",
        "themes/summit@2.1.0/overrides/Theme_ProductDetails": "theme",
        "themes/summit@2.1.0/overrides/Theme_ProductList": "theme",
        "themes/summit@2.1.0/overrides/Theme_ShoppingApplication": "theme",
        "themes/summit@2.1.0/overrides/Theme_SiteSearch": "theme",
        "themes/summit@2.1.0/overrides/Theme_Transaction.Line.Views": "theme"
    },
    "tasksConfig": {
        "javascript": [{
                "entryPoint": "SC.Shopping.Starter",
                "dependencies": [
                    "SC.Summit.Home",
                    "SC.Summit.Footer",
                    "SC.Summit.Footer.Simplified",
                    "SC.Summit.ErrorManagement.PageNotFound",
                    "SC.Summit.ApplicationSkeleton.Layout",
                    "SC.Summit.SiteSearch"
                ]
            },
            {
                "entryPoint": "SC.MyAccount.Starter",
                "dependencies": [
                    "SC.Summit.Home",
                    "SC.Summit.Footer",
                    "SC.Summit.Footer.Simplified",
                    "SC.Summit.SiteSearch"
                ]
            },
            {
                "entryPoint": "SC.Checkout.Starter",
                "dependencies": [
                    "SC.Summit.Home",
                    "SC.Summit.Footer",
                    "SC.Summit.Footer.Simplified",
                    "SC.Summit.SiteSearch"
                ]
            }
        ],
        "sass": {
            "applications": [{
                    "name": "Shopping",
                    "dependencies": [
                        "CustomStyles",
                        "Theme_BaseSassStyles",
                        "Theme_ModuleStyles",
                        "CustomIcons",
                        "Theme_Cart",
                        "Theme_Footer",
                        "Theme_Header",
                        "Theme_Home",
                        "Theme_ProductDetails",
                        "Theme_ProductList",
                        "Theme_ShoppingApplication",
                        "Theme_SiteSearch",
                        "Theme_Transaction.Line.Views"
                    ]
                },
                {
                    "name": "MyAccount",
                    "dependencies": [
                        "CustomStyles",
                        "Theme_BaseSassStyles",
                        "Theme_ModuleStyles",
                        "CustomIcons",
                        "Theme_Footer",
                        "Theme_Header",
                        "Theme_MyAccountApplication",
                        "Theme_ProductList",
                        "Theme_SiteSearch",
                        "Theme_Transaction.Line.Views"
                    ]
                },
                {
                    "name": "Checkout",
                    "dependencies": [
                        "CustomStyles",
                        "Theme_BaseSassStyles",
                        "Theme_ModuleStyles",
                        "CustomIcons",
                        "Theme_Footer",
                        "Theme_Header",
                        "Theme_ProductList",
                        "Theme_SiteSearch",
                        "Theme_Transaction.Line.Views"
                    ]
                }
            ]
        },
        "ssp-libraries": {
            "dependencies": []
        }
    }
}
