{
    "gulp": {
        "configuration": [
            "Configuration/**/*.json"
        ],
        "javascript": [
            "JavaScript/*"
        ],
        "templates": [
            "Templates/*"
        ],
        "sass": [
            "Sass/**/*.scss"
        ],
        "images": [
            "Images/*"
        ]
    },
    "overrides": {
        "suitecommerce/ProductReviews@3.0.3/Sass/_product-reviews-center.scss": "Sass/_qs-product-reviews-center.scss",
        "suitecommerce/ProductReviews@3.0.3/Sass/_product-reviews-review.scss": "Sass/_qs-product-reviews-review.scss",
        "suitecommerce/ProductReviews@3.0.3/Sass/_product-reviews-form.scss": "Sass/_qs-product-reviews-form.scss"
    }
}