{
    "gulp": {
        "javascript": [
            "JavaScript/*.js"
        ],
        "sass": [
            "Sass/*.scss"
        ],
        "templates": [
            "Templates/*.tpl"
        ],
        "configuration": [
            "Configuration/*.json"
        ]
    }
}