{
    "gulp": {
        "sass": [
            "Sass/**/*.scss"
        ]
    },
    "overrides": {
        "suitecommerce/BaseSassStyles@3.0.0/Sass/_main-variables.scss": "Sass/_qs-main-variables.scss",
        "suitecommerce/BaseSassStyles@3.0.0/Sass/atoms/_forms.scss": "Sass/atoms/_qs-forms.scss",
        "suitecommerce/BaseSassStyles@3.0.0/Sass/atoms/_icons.scss": "Sass/atoms/_qs-icons.scss",
        "suitecommerce/BaseSassStyles@3.0.0/Sass/atoms/_breadcrumb.scss": "Sass/atoms/_qs-breadcrumb.scss",
        "suitecommerce/BaseSassStyles@3.0.0/Sass/atoms/_buttons.scss": "Sass/atoms/_qs-buttons.scss",
        "suitecommerce/BaseSassStyles@3.0.0/Sass/atoms/_purchase-controls.scss": "Sass/atoms/_qs-purchase-controls.scss",
        "suitecommerce/BaseSassStyles@3.0.0/Sass/atoms/_typography.scss": "Sass/atoms/_qs-typography.scss",
        "suitecommerce/BaseSassStyles@3.0.0/Sass/base/_mixins.scss": "Sass/base/_qs-mixins.scss",
        "suitecommerce/BaseSassStyles@3.0.0/Sass/base/_spacing.scss": "Sass/base/_qs-spacing.scss",
        "suitecommerce/BaseSassStyles@3.0.0/Sass/molecules/_search.scss": "Sass/molecules/_qs-search.scss",
        "suitecommerce/BaseSassStyles@3.0.0/Sass/molecules/_pagination.scss": "Sass/molecules/_qs-pagination.scss",
        "suitecommerce/BaseSassStyles@3.0.0/Sass/molecules/_quantity-input.scss": "Sass/molecules/_qs-quantity-input.scss",
        "suitecommerce/BaseSassStyles@3.0.0/Sass/molecules/_accordions.scss": "Sass/molecules/_qs-accordions.scss",
        "suitecommerce/BaseSassStyles@3.0.0/Sass/molecules/_list-header.scss": "Sass/molecules/_qs-list-header.scss",
        "suitecommerce/BaseSassStyles@3.0.0/Sass/molecules/_item-cells.scss": "Sass/molecules/_qs-item-cells.scss",
        "suitecommerce/BaseSassStyles@3.0.0/Sass/molecules/_summary_box.scss": "Sass/molecules/_qs-summary_box.scss",
        "suitecommerce/BaseSassStyles@3.0.0/Sass/variables/_colors.scss": "Sass/variables/_qs-colors.scss",
        "suitecommerce/BaseSassStyles@3.0.0/Sass/variables/_typography.scss": "Sass/variables/_qs-typography.scss",
        "suitecommerce/BaseSassStyles@3.0.0/Sass/variables/_variables.scss": "Sass/variables/_qs-variables.scss"
    }
}