{
    "gulp": {
        "javascript": [
            "JavaScript/*.js"
        ],
        "sass": [
            "Sass/*.scss"
        ],
        "templates": [
            "Templates/*"
        ]
    },
    "overrides": {
        "suitecommerce/SocialSharing@2.0.4/Sass/_social-sharing-flyout.scss": "Sass/_qs-social-sharing-flyout.scss"
    }
}