{
    "type": "object",
    "subtab": {
        "id": "webFonts",
        "title": "Web Fonts",
        "group": "themes",
        "description": "Web Fonts"
    },
    "properties": {
        "themes.webFonts.isWebFontEnabled": {
            "group": "themes",
            "subtab": "webFonts",
            "type": "boolean",
            "title": "Enable Web Fonts",
            "default": true
        },
        "themes.webFonts.isWebFontAsync": {
            "group": "themes",
            "subtab": "webFonts",
            "type": "boolean",
            "title": "Load Web Fonts Script Asynchronously",
            "default": true
        },
        "themes.webFonts.webFontConfig.google.families": {
            "group": "themes",
            "subtab": "webFonts",
            "type": "array",
            "title": "WebFontConfig Google Families",
            "description": "",
            "items": {
                "type": "string",
                "title": "Google Families",
                "description": ""
            },
            "default": [
                "Roboto:400,700,300:latin",
                "Work+Sans::latin"
            ]
        }
    }
}