{
    "gulp": {
        "javascript": [
            "JavaScript/*"
        ],
        "images": [
            "Images/*"
        ],
        "templates": [
            "Templates/*"
        ],
        "sass": [
            "Sass/**/*.scss"
        ],
        "configuration": [
            "Configuration/*.json"
        ]
    },
    "overrides": {
        "suitecommerce/Footer@1.3.0/Sass/_footer.scss": "Sass/_qs-footer.scss",
        "suitecommerce/Footer@1.3.0/Templates/footer.tpl": "Templates/qs_footer.tpl",
        "suitecommerce/Footer@1.3.0/Templates/footer_simplified.tpl": "Templates/qs_footer_simplified.tpl"
    }
}
