{
    "gulp": {
        "javascript": [
            "JavaScript/*.js"
        ],
        "unit-test-files": [
            "Tests/*.js"
        ],
        "unit-test-entry-point": [
            "Tests/UnitTest.Backbone.FormView.js"
        ]
    }
}