{
    "gulp": {
        "javascript": [
            "JavaScript/*"
        ],
            "configuration": [
            "Configuration/*.json"
        ]
    }
    , "overrides": {
          "suitecommerce/Home@2.2.1/JavaScript/Home.View.js": "JavaScript/Home.View.js",
          "suitecommerce/Home@2.2.1/Configuration/Home.json": "Configuration/Home.json"
      }
}
