{
    "gulp": {
        "javascript": [
            "JavaScript/*.js"
        ],
        "sass": [
            "Sass/**/*.scss"
        ],
        "templates": [
            "Templates/*.tpl"
        ],
        "unit-test-files": [
            "Tests/*.js"
        ],
        "unit-test-entry-point": [
            "Tests/UnitTest.OrderWizard.Module.CartSummary.js"
        ]
    }
}