{
  "type": "object",
    "properties": {
        "footer.copyright.hide": {
            "group": "layout",
            "subtab": "footer",
            "type": "boolean",
            "title": "Hide",
            "description": "Hide copyright notice from the footer",
            "default": false
        },
        "footer.copyright.companyName": {
            "group": "layout",
            "subtab": "footer",
            "type": "string",
            "title": "Company Name",
            "description": "Company Name to show in the footer copyright notice",
            "default": "Company Name"
        },
        "footer.copyright.initialYear": {
            "group": "layout",
            "subtab": "footer",
            "type": "string",
            "title": "Initial Year",
            "description": "Initial Year to show in the footer copyright notice (empty will show current year)",
            "default": null
        },
        "footer.socialMediaLinksTitle": {
            "group": "layout",
            "subtab": "footer"
        ,   "type": "string"
        ,   "translate": true
        ,   "title": "Social media links title"
        ,   "description": "Title for the social media links section"
        ,   "default": "Follow us on"
        },
        "footer.socialMediaLinks": {
          "group": "layout"
        , "subtab": "footer"
        , "type": "array"
        , "title": "Social media links"
        , "description": "Simple links to various social media locations, using FontAwesome icons from the 'Brand Icons' or 'Web Applications' sections of http://fontawesome.io/icons/"
        , "items": {
            "type": "object"
          , "properties": {
              "icon": {
                "type": "string"
              , "title": "Icon Name"
              , "description": ""
              },
              "text": {
                "type": "string"
              , "title": "Text"
              , "description": ""
              },
              "href": {
                "type": "string"
              , "title": "URL"
              , "description": ""
              },
              "datatouchpoint": {
                "type": "string"
              , "title": "data-touchpoint"
              , "description": ""
              },
              "datahashtag": {
                "type": "string"
              , "title": "data-hashtag"
              , "description": ""
              },
              "datatarget": {
                "type": "string"
              , "title": "data-target"
              , "description": ""
              }
            }
          },
          "default": [
            {
              "icon": "facebook"
            , "text": "facebook"
            , "href": "www.facebook.com"
            , "datatouchpoint": ""
            , "datahashtag": ""
            , "datatarget": ""
            },
            {
              "icon": "twitter"
            , "text": "twitter"
            , "href": "www.twitter.com"
            , "datatouchpoint": ""
            , "datahashtag": ""
            , "datatarget": ""
            },
            {
              "icon": "pinterest"
            , "text": "pinterest"
            , "href": "www.pinterest.com"
            , "datatouchpoint": ""
            , "datahashtag": ""
            , "datatarget": ""
            },
            {
              "icon": "youtube"
            , "text": "youtube"
            , "href": "www.youtube.com"
            , "datatouchpoint": ""
            , "datahashtag": ""
            , "datatarget": ""
            },
            {
              "icon": "instagram"
            , "text": "instagram"
            , "href": "www.instagram.com"
            , "datatouchpoint": ""
            , "datahashtag": ""
            , "datatarget": ""
            },
            {
              "icon": "google-plus"
            , "text": "google+"
            , "href": "plus.google.com"
            , "datatouchpoint": ""
            , "datahashtag": ""
            , "datatarget": ""
            }
          ]
        },
        "footer.multiColLinks": {
          "group": "layout"
        , "subtab": "footer"
        , "type": "array"
        , "title": "Multi-column Links"
        , "description": "Multiple column footer displaying up to four columns of links"
        , "items": {
            "type": "object"
          , "properties": {
              "text": {
                "type": "string"
              , "title": "Text"
              , "description": ""
              },
              "href": {
                "type": "string"
              , "title": "URL"
              , "description": ""
              },
              "datatouchpoint": {
                "type": "string"
              , "title": "data-touchpoint"
              , "description": ""
              },
              "datahashtag": {
                "type": "string"
              , "title": "data-hashtag"
              , "description": ""
              },
              "datatarget": {
                "type": "string"
              , "title": "data-target"
              , "description": ""
              },
              "column": {
                "type": "string"
              , "title": "Column"
              , "description": ""
              , "enum": ["Column 1", "Column 2", "Column 3", "Column 4"]
              }
            }
          },
          "default": [
            {
              "text": "Here to Help"
            , "href": ""
            , "datatouchpoint": ""
            , "datahashtag": ""
            , "datatarget": ""
            , "column": "Column 1"
            },
            {
              "text": "FAQs"
            , "href": "#"
            , "datatouchpoint": ""
            , "datahashtag": ""
            , "datatarget": ""
            , "column": "Column 1"
            },
            {
              "text": "Delivery & Collection"
            , "href": "#"
            , "datatouchpoint": ""
            , "datahashtag": ""
            , "datatarget": ""
            , "column": "Column 1"
            },
            {
              "text": "Returns & Refunds"
            , "href": "#"
            , "datatouchpoint": ""
            , "datahashtag": ""
            , "datatarget": ""
            , "column": "Column 1"
            },
            {
              "text": "Shopping With Us"
            , "href": ""
            , "datatouchpoint": ""
            , "datahashtag": ""
            , "datatarget": ""
            , "column": "Column 2"
            },
            {
              "text": "International Delivery"
            , "href": "#"
            , "datatouchpoint": ""
            , "datahashtag": ""
            , "datatarget": ""
            , "column": "Column 2"
            },
            {
              "text": "Our Stores"
            , "href": "#"
            , "datatouchpoint": ""
            , "datahashtag": ""
            , "datatarget": ""
            , "column": "Column 2"
            },
            {
              "text": "Size Guides"
            , "href": "#"
            , "datatouchpoint": ""
            , "datahashtag": ""
            , "datatarget": ""
            , "column": "Column 2"
            },
            {
              "text": "About Us"
            , "href": ""
            , "datatouchpoint": ""
            , "datahashtag": ""
            , "datatarget": ""
            , "column": "Column 3"
            },
            {
              "text": "Corporate Site"
            , "href": "#"
            , "datatouchpoint": ""
            , "datahashtag": ""
            , "datatarget": ""
            , "column": "Column 3"
            },
            {
              "text": "Jobs"
            , "href": "#"
            , "datatouchpoint": ""
            , "datahashtag": ""
            , "datatarget": ""
            , "column": "Column 3"
            },
            {
              "text": "Contact Us"
            , "href": "/contact-us"
            , "datatouchpoint": ""
            , "datahashtag": ""
            , "datatarget": ""
            , "column": "Column 3"
            },
            {
              "text": "Legal"
            , "href": ""
            , "datatouchpoint": ""
            , "datahashtag": ""
            , "datatarget": ""
            , "column": "Column 4"
            },
            {
              "text": "Privacy & Cookies"
            , "href": "#"
            , "datatouchpoint": ""
            , "datahashtag": ""
            , "datatarget": ""
            , "column": "Column 4"
            },
            {
              "text": "Accessibility"
            , "href": "#"
            , "datatouchpoint": ""
            , "datahashtag": ""
            , "datatarget": ""
            , "column": "Column 4"
            }
          ]
        }
    }
}
